# Hook Design Patterns:
# - RESTful endpoints with consistent CRUD patterns for entity management
# - Query parameters for filtering, sorting, and pagination
# - Nested resources for related data (e.g., /api/players/{id}/stats)
# - Bulk operations for batch processing
# - WebSocket subscriptions for real-time updates

service_api_endpoint_mapping:
  auth_service:
    endpoints:
      - POST /api/auth/login
      - POST /api/auth/register
      - POST /api/auth/logout
      - POST /api/auth/refresh-token
      - GET /api/auth/session
      - POST /api/auth/forgot-password
      - POST /api/auth/reset-password
      - POST /api/auth/verify-email
      - GET /api/auth/permissions
      - GET /api/auth/roles

  api_client_service:
    endpoints:
      - ALL /api/* (proxies all API requests)
      - GET /api/health
      - GET /api/config
      - POST /api/batch-requests
      - GET /api/cache-control

  websocket_service:
    endpoints:
      - WS /ws (WebSocket connection)
      - POST /api/ws/auth
      - GET /api/ws/status
      - POST /api/ws/subscribe/{channel}
      - POST /api/ws/unsubscribe/{channel}
      - GET /api/ws/subscriptions
      - POST /api/ws/broadcast (admin only)

  search_service:
    endpoints:
      - GET /api/search
      - GET /api/search/suggestions
      - POST /api/search/advanced
      - GET /api/search/history
      - DELETE /api/search/history/{id}
      - POST /api/search/index
      - GET /api/search/indices

  content_service:
    endpoints:
      - GET /api/content
      - GET /api/content/{id}
      - POST /api/content
      - PUT /api/content/{id}
      - DELETE /api/content/{id}
      - GET /api/content/categories
      - POST /api/content/{id}/publish
      - POST /api/content/{id}/unpublish
      - GET /api/content/{id}/versions
      - POST /api/content/{id}/upload
      - GET /api/media
      - GET /api/media/{id}
      # Hook-friendly patterns
      - GET /api/content/latest?limit={limit}&category={category}
      - GET /api/content/trending?period={period}
      - POST /api/content/bulk-update

  player_service:
    endpoints:
      - GET /api/players
      - GET /api/players/{id}
      - POST /api/players
      - PUT /api/players/{id}
      - DELETE /api/players/{id}
      - GET /api/players/{id}/stats
      - POST /api/players/{id}/stats
      - GET /api/players/{id}/contract
      - POST /api/players/{id}/contract
      - GET /api/players/search/scout
      # Hook-friendly patterns
      - GET /api/players/similar/{playerId}?limit={limit}
      - GET /api/players/filter?position={position}&age={age}&limit={limit}
      - POST /api/players/bulk
      - GET /api/players/export?format={csv|pdf|json}

  advertising_service:
    endpoints:
      # Campaign Management
      - GET /api/campaigns
      - GET /api/campaigns/{id}
      - POST /api/campaigns
      - PUT /api/campaigns/{id}
      - DELETE /api/campaigns/{id}
      - POST /api/campaigns/{id}/activate
      - POST /api/campaigns/{id}/pause
      - POST /api/campaigns/{id}/archive
      - GET /api/campaigns/{id}/budget
      - PUT /api/campaigns/{id}/budget
      
      # Creative Management
      - GET /api/creatives
      - GET /api/creatives/{id}
      - POST /api/creatives
      - PUT /api/creatives/{id}
      - DELETE /api/creatives/{id}
      - POST /api/creatives/{id}/approve
      - POST /api/creatives/{id}/reject
      
      # Ad Space Management
      - GET /api/ad-spaces
      - GET /api/ad-spaces/{id}
      - POST /api/ad-spaces
      - PUT /api/ad-spaces/{id}
      - GET /api/ad-spaces/{id}/availability
      - POST /api/ad-spaces/{id}/book
      - GET /api/ad-spaces/types
      
      # Ad Delivery Endpoints (10.1)
      - POST /api/ad-delivery/impression
      - POST /api/ad-delivery/click
      - POST /api/ad-delivery/conversion
      - GET /api/ad-delivery/available
      - POST /api/ad-delivery/select
      - GET /api/ad-delivery/status/{deliveryId}
      
      # Impression Counting (10.2)
      - POST /api/impressions/track
      - GET /api/impressions/summary?campaignId={id}&startDate={date}&endDate={date}
      - GET /api/impressions/real-time/{campaignId}
      - POST /api/impressions/validate
      - GET /api/impressions/health
      
      # Ad Metrics & Analytics
      - GET /api/campaigns/{id}/metrics
      - GET /api/creatives/{id}/metrics
      - GET /api/ad-delivery/report?campaignId={id}&interval={hourly|daily|weekly}
      
      # Budget Management
      - GET /api/campaigns/{id}/budget/real-time
      - POST /api/campaigns/{id}/budget/adjust
      - GET /api/campaigns/{id}/budget/thresholds
      - POST /api/campaigns/{id}/budget/thresholds
      
      # Hook-friendly patterns
      - GET /api/campaigns/active?userId={userId}
      - GET /api/campaigns/stats/summary
      - POST /api/campaigns/bulk-activate
      - POST /api/campaigns/bulk-pause

  league_service:
    endpoints:
      - GET /api/leagues
      - GET /api/leagues/{id}
      - GET /api/leagues/{id}/fixtures
      - GET /api/leagues/{id}/standings
      - GET /api/leagues/{id}/stats
      - GET /api/fixtures
      - GET /api/fixtures/{id}
      - POST /api/fixtures
      - PUT /api/fixtures/{id}
      - GET /api/fixtures/{id}/events
      - POST /api/fixtures/{id}/events
      - GET /api/teams
      - GET /api/teams/{id}
      # Hook-friendly patterns
      - GET /api/fixtures/upcoming?limit={limit}
      - GET /api/fixtures/live
      - GET /api/standings/current?leagueId={id}
      - POST /api/fixtures/bulk

  notification_service:
    endpoints:
      - GET /api/notifications
      - GET /api/notifications/unread
      - PUT /api/notifications/{id}/read
      - PUT /api/notifications/mark-all-read
      - DELETE /api/notifications/{id}
      - POST /api/notifications/subscribe
      - POST /api/notifications/unsubscribe
      - GET /api/notifications/preferences
      - PUT /api/notifications/preferences
      # Hook-friendly patterns
      - GET /api/notifications/count
      - POST /api/notifications/bulk-read
      - GET /api/notifications/types

  file_upload_service:
    endpoints:
      - POST /api/upload
      - POST /api/upload/chunk
      - POST /api/upload/complete
      - GET /api/uploads/{id}
      - DELETE /api/uploads/{id}
      - GET /api/uploads/{id}/progress
      - POST /api/upload/signed-url
      - POST /api/upload/process/{id}
      # Hook-friendly patterns
      - POST /api/upload/batch
      - GET /api/uploads/user/{userId}
      - POST /api/uploads/{id}/retry

  cache_service:
    endpoints:
      - GET /api/cache
      - POST /api/cache/invalidate
      - GET /api/cache/stats
      - POST /api/cache/clear
      - GET /api/cache/{key}
      - POST /api/cache/preload
      # Hook-friendly patterns
      - GET /api/cache/keys?pattern={pattern}
      - POST /api/cache/bulk-invalidate
      - GET /api/cache/health

  analytics_service:
    endpoints:
      # Event Tracking
      - POST /api/analytics/events
      - POST /api/analytics/pageview
      - POST /api/analytics/session
      - POST /api/analytics/error
      
      # Query & Reports
      - GET /api/analytics/summary
      - GET /api/analytics/user/{userId}
      - GET /api/analytics/page/{pageId}
      - GET /api/analytics/conversion
      - POST /api/analytics/query
      
      # User Identification
      - POST /api/analytics/identify
      - POST /api/analytics/alias
      
      # View & Impression Tracking
      - POST /api/analytics/views
      - GET /api/analytics/views/summary?contentId={id}&period={period}
      - POST /api/analytics/impressions
      - GET /api/analytics/impressions/summary?contentId={id}&startDate={date}&endDate={date}
      
      # Real-time Analytics
      - GET /api/analytics/realtime/active-users
      - GET /api/analytics/realtime/events
      - WS /ws/analytics (WebSocket for real-time analytics)
      
      # Export & Integration
      - GET /api/analytics/export?format={csv|json}&startDate={date}&endDate={date}
      - POST /api/analytics/webhook
      
      # Hook-friendly patterns
      - GET /api/analytics/trends?metric={views|conversions}&period={7d|30d}
      - POST /api/analytics/batch-events

  geospatial_service:
    endpoints:
      - GET /api/locations/search
      - GET /api/locations/{id}
      - POST /api/locations/geocode
      - GET /api/maps/tiles/{z}/{x}/{y}
      - POST /api/geofence/check
      - GET /api/routes/{from}/{to}

  reporting_service:
    endpoints:
      - POST /api/reports/generate
      - GET /api/reports/{id}
      - GET /api/reports/templates
      - POST /api/reports/schedule
      - GET /api/reports/scheduled
      - DELETE /api/reports/scheduled/{id}
      - POST /api/reports/export/{format}
      - GET /api/reports/{id}/download

  workflow_service:
    endpoints:
      - GET /api/workflows
      - GET /api/workflows/{id}
      - POST /api/workflows
      - POST /api/workflows/{id}/start
      - POST /api/workflows/{id}/approve
      - POST /api/workflows/{id}/reject
      - GET /api/workflows/{id}/tasks
      - GET /api/workflows/{id}/history
      - GET /api/workflows/pending
      - POST /api/workflows/{id}/delegate

  integration_service:
    endpoints:
      - POST /api/integrations/{provider}/auth
      - GET /api/integrations/{provider}/callback
      - GET /api/integrations/connected
      - DELETE /api/integrations/{provider}/disconnect
      - POST /api/webhooks/{type}
      - GET /api/webhooks/{id}
      - POST /api/payments/process
      - GET /api/payments/{id}
      - POST /api/payments/{id}/refund

  payment_service:
    endpoints:
      - POST /api/payments/create-intent
      - GET /api/payments/methods
      - POST /api/payments/methods
      - DELETE /api/payments/methods/{id}
      - GET /api/payments/transactions
      - GET /api/payments/invoices
      - GET /api/payments/invoices/{id}/download
      - POST /api/payments/subscriptions
      - GET /api/payments/subscriptions/{id}
      - POST /api/payments/subscriptions/{id}/cancel

  theme_service:
    endpoints:
      - GET /api/theme
      - PUT /api/theme
      - GET /api/theme/presets
      - POST /api/theme/presets
      - GET /api/theme/customizations

  i18n_service:
    endpoints:
      - GET /api/i18n/translations/{locale}
      - POST /api/i18n/translations
      - GET /api/i18n/locales
      - PUT /api/i18n/user-locale
      - GET /api/i18n/currency-rates

  data_services:
    user_service:
      endpoints:
        - GET /api/users
        - GET /api/users/{id}
        - POST /api/users
        - PUT /api/users/{id}
        - DELETE /api/users/{id}
        - GET /api/users/{id}/profile
        - PUT /api/users/{id}/profile
        - GET /api/users/{id}/activity
        - POST /api/users/{id}/avatar
        - PUT /api/users/{id}/preferences

    organization_service:
      endpoints:
        - GET /api/organizations
        - GET /api/organizations/{id}
        - POST /api/organizations
        - PUT /api/organizations/{id}
        - GET /api/organizations/{id}/members
        - POST /api/organizations/{id}/members
        - DELETE /api/organizations/{id}/members/{userId}
        - GET /api/organizations/{id}/settings

  admin_endpoints:
    admin_service:
      endpoints:
        - GET /api/admin/users
        - PUT /api/admin/users/{id}/status
        - GET /api/admin/analytics/system
        - GET /api/admin/logs
        - POST /api/admin/maintenance
        - GET /api/admin/config
        - PUT /api/admin/config
        - GET /api/admin/health/detailed
        - POST /api/admin/cache/clear-all

  public_endpoints:
    public_service:
      endpoints:
        - GET /api/public/content
        - GET /api/public/leagues
        - GET /api/public/players
        - GET /api/public/fixtures
        - GET /api/public/standings
        - GET /api/public/search
        - POST /api/public/contact
        - GET /api/public/health
        - GET /api/public/config/client

  webhook_endpoints:
    webhook_service:
      endpoints:
        - POST /api/webhooks/stripe
        - POST /api/webhooks/twilio
        - POST /api/webhooks/sendgrid
        - POST /api/webhooks/slack
        - POST /api/webhooks/github
        - GET /api/webhooks/{id}/status
        - POST /api/webhooks/tests

# Hook Design Endpoint Patterns (6.1)
hook_endpoint_patterns:
  
  # Entity Management Patterns
  entity_crud_patterns:
    - "GET /api/{entity} - List with filters, pagination, sorting"
    - "GET /api/{entity}/{id} - Single entity by ID"
    - "POST /api/{entity} - Create new entity"
    - "PUT /api/{entity}/{id} - Update entity"
    - "DELETE /api/{entity}/{id} - Delete entity"
    - "GET /api/{entity}/{id}/{subresource} - Nested resources"
    - "POST /api/{entity}/{id}/{action} - Entity-specific actions"
  
  # Query Parameter Standards
  query_parameters:
    filtering: "?filter[field]=value&filter[field2]=value2"
    pagination: "?page=1&limit=20"
    sorting: "?sort=field.asc&sort=field2.desc"
    include: "?include=relatedEntity,anotherEntity"
    fields: "?fields=id,name,email&fields[related]=id,title"
  
  # Hook-Friendly Response Structures
  response_structures:
    paginated_response: |
      {
        "data": [],
        "meta": {
          "total": 100,
          "page": 1,
          "limit": 20,
          "pages": 5
        },
        "links": {
          "first": "/api/entity?page=1",
          "prev": null,
          "next": "/api/entity?page=2",
          "last": "/api/entity?page=5"
        }
      }
    
    single_entity_response: |
      {
        "data": {
          "id": "123",
          "type": "entity",
          "attributes": {},
          "relationships": {},
          "links": {
            "self": "/api/entity/123"
          }
        },
        "included": []
      }
  
  # WebSocket Integration Patterns
  websocket_hook_patterns:
    subscription_patterns:
      - "WS: subscribe channel='entity:{id}:updates'"
      - "WS: unsubscribe channel='entity:{id}:updates'"
      - "WS: message event='entity_updated' payload={entity}"
    
    real_time_updates:
      - "Entity updates trigger WebSocket broadcasts"
      - "Clients subscribe to specific entity channels"
      - "Hooks receive real-time updates via useSubscription()"
  
  # Ad Delivery Specific Patterns (10.1)
  ad_delivery_patterns:
    impression_tracking:
      - "POST /api/ad-delivery/impression - Track ad view"
      - "POST /api/ad-delivery/click - Track ad click"
      - "POST /api/ad-delivery/conversion - Track conversion"
    
    ad_selection:
      - "GET /api/ad-delivery/available - Get available ads"
      - "POST /api/ad-delivery/select - Select ad for display"
    
    validation_requirements:
      viewport: "Ad must be in viewport"
      duration: "Minimum 1 second visibility"
      fraud_detection: "Duplicate impression prevention"
      offline_support: "Queue impressions when offline"
    
    hook_integration:
      use_ad_delivery: "Manages ad selection and tracking"
      use_impression_tracking: "Handles impression validation"
      use_ad_analytics: "Provides real-time ad metrics"
  
  # Impression Counting Patterns (10.2)
  impression_counting_patterns:
    tracking_endpoints:
      - "POST /api/impressions/track - Track impression with validation"
      - "GET /api/impressions/summary - Get impression statistics"
      - "GET /api/impressions/real-time/{campaignId} - Real-time impression count"
    
    validation_rules:
      - "Session-based deduplication (24-hour window)"
      - "Viewport verification via IntersectionObserver"
      - "Minimum time threshold (≥1 second)"
      - "User interaction validation"
    
    real_time_features:
      - "WebSocket updates for live impression counts"
      - "Budget threshold notifications (80%, 90%, 100%)"
      - "Campaign auto-pause at budget limit"
    
    analytics_integration:
      - "Impressions feed into analytics service"
      - "Cross-device tracking via user ID"
      - "Attribution modeling for conversions"
    
    hook_implementation:
      use_track_view: "Content view tracking with deduplication"
      use_ad_impression: "Ad-specific impression tracking"
      use_impression_analytics: "Impression analytics and reporting"